# Blender v2.81 (sub 16) OBJ File: ''
# www.blender.org
mtllib Piston0O.mtl
o Cube
v 1.000000 0.600000 -1.000000
v 1.000000 0.000000 -1.000000
v 1.000000 0.600000 1.000000
v 1.000000 0.000000 1.000000
v -1.000000 0.600000 -1.000000
v -1.000000 0.000000 -1.000000
v -1.000000 0.600000 1.000000
v -1.000000 0.000000 1.000000
v 0.600000 0.600000 -0.600000
v 0.600000 0.000000 -0.600000
v 0.600000 0.600000 0.600000
v 0.600000 0.000000 0.600000
v 1.000000 0.357143 -1.000000
vt 0.714286 0.333333
vt 0.714286 0.666667
vt 0.357143 0.666667
vt 0.357143 0.333333
vt 0.428571 0.400000
vt 0.642857 0.400000
vt 0.357143 0.333333
vt 0.357143 0.000000
vt 0.714286 0.000000
vt 0.714286 0.333333
vt 0.357143 0.666667
vt 0.000000 0.666667
vt 0.000000 0.333333
vt 0.357143 0.333333
vt 0.000000 1.000000
vt 0.000000 0.666667
vt 0.071429 0.733333
vt 0.285714 0.733333
vt 0.357143 0.666667
vt 0.357143 1.000000
vt 0.000000 0.333333
vt 0.000000 0.000000
vt 0.357143 0.000000
vt 0.357143 0.134921
vt 0.357143 0.333333
vt 1.000000 0.000000
vt 1.000000 0.333333
vt 0.785714 0.333333
vt 0.785714 0.000000
vt 0.785714 0.333333
vt 0.785714 0.666667
vt 0.714286 0.666667
vt 0.000000 0.000000
vt 0.000000 0.000000
vt 0.000000 0.000000
vt 0.714286 0.333333
vt 0.714286 0.000000
vn 0.0000 1.0000 -0.0000
vn 0.0000 0.0000 1.0000
vn -1.0000 0.0000 0.0000
vn 0.0000 -1.0000 0.0000
vn 0.0000 0.0000 -1.0000
vn 1.0000 0.0000 0.0000
vn 0.7071 0.0000 0.7071
vn 0.7071 0.0000 -0.7071
usemtl Mat0O
s off
f 1/1/1 5/2/1 7/3/1 3/4/1 11/5/1 9/6/1
f 4/7/2 3/8/2 7/9/2 8/10/2
f 8/11/3 7/12/3 5/13/3 6/14/3
f 6/15/4 2/16/4 10/17/4 12/18/4 4/19/4 8/20/4
f 6/21/5 5/22/5 1/23/5 13/24/5 2/25/5
f 10/26/6 9/27/6 11/28/6 12/29/6
f 9/30/7 10/31/7 2/32/7 1/1/7
f 1/33/2 2/34/2 13/35/2
f 12/29/8 11/28/8 3/36/8 4/37/8
