# Blender v2.81 (sub 16) OBJ File: ''
# www.blender.org
mtllib Piston3O.mtl
o Cube.004
v -1.000000 0.000000 1.000000
v -1.000000 0.600000 1.000000
v -1.000000 0.000000 -1.000000
v -1.000000 0.600000 -1.000000
v 1.000000 0.000000 1.000000
v 1.000000 0.600000 1.000000
v 1.000000 0.000000 -1.000000
v 1.000000 0.600000 -1.000000
vt 0.666667 0.666667
vt 0.333333 0.666667
vt 0.333333 0.333333
vt 0.666667 0.333333
vt 0.000000 0.333333
vt 0.000000 0.000000
vt 0.333333 0.000000
vt 0.333333 0.333333
vt 0.333333 0.666667
vt 0.000000 0.666667
vt 0.000000 0.333333
vt 0.333333 0.333333
vt 0.333333 0.000000
vt 0.666667 0.000000
vt 0.666667 0.333333
vt 0.666667 0.000000
vt 1.000000 0.000000
vt 1.000000 0.333333
vt 0.333333 1.000000
vt 0.000000 1.000000
vn -1.0000 0.0000 0.0000
vn 0.0000 0.0000 -1.0000
vn 1.0000 0.0000 0.0000
vn 0.0000 0.0000 1.0000
vn 0.0000 -1.0000 0.0000
vn 0.0000 1.0000 0.0000
usemtl Mat3O
s off
f 1/1/1 2/2/1 4/3/1 3/4/1
f 3/5/2 4/6/2 8/7/2 7/8/2
f 7/8/3 8/9/3 6/10/3 5/11/3
f 5/12/4 6/13/4 2/14/4 1/15/4
f 3/4/5 7/16/5 5/17/5 1/18/5
f 8/9/6 4/19/6 2/20/6 6/10/6
